…
Notice the backwards compatibility! No need for loops!

Try the same thing, but with `transmute` (**drops all other variables**).

``` r
gapminder %>% 
  transmute(gdp = gdpPercap * pop,
         gdpBill = round(gdp/10^9,2))
```

    ## # A tibble: 1,704 x 2
    ##             gdp gdpBill
    ##           <dbl>   <dbl>
    ##  1  6567086330.    6.57
    ##  2  7585448670.    7.59
    ##  3  8758855797.    8.76
    ##  4  9648014150.    9.65
    ##  5  9678553274.    9.68
    ##  6 11697659231.   11.7 
    ##  7 12598563401.   12.6 
    ##  8 11820990309.   11.8 
    ##  9 10595901589.   10.6 
    ## 10 14121995875.   14.1 
    ## # ... with 1,694 more rows
…
Do the same thing, but try:

1.  grouping by country
2.  grouping by continent and country

``` r
gapminder %>% 
  group_by(country) %>%
  summarize(mu = mean(lifeExp),
            md = median(lifeExp))
```

    ## # A tibble: 142 x 3
    ##    country        mu    md
    ##    <fct>       <dbl> <dbl>
    ##  1 Afghanistan  37.5  39.1
    ##  2 Albania      68.4  69.7
    ##  3 Algeria      59.0  59.7
    ##  4 Angola       37.9  39.7
    ##  5 Argentina    69.1  69.2
    ##  6 Australia    74.7  74.1
    ##  7 Austria      73.1  72.7
    ##  8 Bahrain      65.6  67.3
    ##  9 Bangladesh   49.8  48.5
    ## 10 Belgium      73.6  73.4
    ## # ... with 132 more rows
…
    ## # A tibble: 5 x 3
    ##   continent    mu    md
    ##   <fct>     <dbl> <dbl>
    ## 1 Africa     48.9  47.8
    ## 2 Americas   64.7  67.0
    ## 3 Asia       60.1  61.8
    ## 4 Europe     71.9  72.2
    ## 5 Oceania    74.3  73.7

``` r
gapminder %>% 
  group_by(continent, country)
```

    ## # A tibble: 1,704 x 6
    ## # Groups:   continent, country [142]
    ##    country     continent  year lifeExp      pop gdpPercap
    ##    <fct>       <fct>     <int>   <dbl>    <int>     <dbl>
    ##  1 Afghanistan Asia       1952    28.8  8425333      779.
    ##  2 Afghanistan Asia       1957    30.3  9240934      821.
    ##  3 Afghanistan Asia       1962    32.0 10267083      853.
    ##  4 Afghanistan Asia       1967    34.0 11537966      836.
    ##  5 Afghanistan Asia       1972    36.1 13079460      740.
    ##  6 Afghanistan Asia       1977    38.4 14880372      786.
    ##  7 Afghanistan Asia       1982    39.9 12881816      978.
    ##  8 Afghanistan Asia       1987    40.8 13867957      852.
    ##  9 Afghanistan Asia       1992    41.7 16317921      649.
    ## 10 Afghanistan Asia       1997    41.8 22227415      635.
    ## # ... with 1,694 more rows

``` r
gapminder %>% 
  group_by(continent,country) %>%
  summarize(mu_life = mean(lifeExp),
            md_pop = median(pop))
```

    ## # A tibble: 142 x 4
    ## # Groups:   continent [?]
    ##    continent country                  mu_life    md_pop
    ##    <fct>     <fct>                      <dbl>     <dbl>
    ##  1 Africa    Algeria                     59.0 18593278.
    ##  2 Africa    Angola                      37.9  6589530.
    ##  3 Africa    Benin                       48.8  3404935 
    ##  4 Africa    Botswana                    54.6   875910.
    ##  5 Africa    Burkina Faso                44.7  6262085 
    ##  6 Africa    Burundi                     44.8  4207412.
    ##  7 Africa    Cameroon                    48.1  8605348 
    ##  8 Africa    Central African Republic    43.9  2322252 
    ##  9 Africa    Chad                        46.8  4631689 
    ## 10 Africa    Comoros                     52.4   326691 
    ## # ... with 132 more rows
-   Notice the columns that are kept.
-   Notice the grouping listed above the tibble, especially without a call after grouping.
-   Notice the peeling of groups for each summarize.

Question: What if I wanted to keep the other numeric columns (gdpPercap, pop)? Can I? Would this even make sense?

For each continent: What is the smallest country-wide median GDP per capita?

``` r
gapminder %>% 
  group_by(continent,country) %>% 
  summarize(md = median(gdpPercap)) 
```

    ## # A tibble: 142 x 3
    ## # Groups:   continent [?]
    ##    continent country                     md
    ##    <fct>     <fct>                    <dbl>
    ##  1 Africa    Algeria                  4854.
    ##  2 Africa    Angola                   3265.
    ##  3 Africa    Benin                    1139.
    ##  4 Africa    Botswana                 3883.
    ##  5 Africa    Burkina Faso              831.
    ##  6 Africa    Burundi                   455.
    ##  7 Africa    Cameroon                 1739.
    ##  8 Africa    Central African Republic 1013.
    ##  9 Africa    Chad                     1145.
    ## 10 Africa    Comoros                  1229.
    ## # ... with 132 more rows

``` r
#%>% 
  #summarize(min = min(md))

gapminder %>% 
  group_by(country,continent) %>% 
  summarize(md = median(gdpPercap))
```

    ## # A tibble: 142 x 3
    ## # Groups:   country [?]
    ##    country     continent     md
    ##    <fct>       <fct>      <dbl>
    ##  1 Afghanistan Asia        803.
    ##  2 Albania     Europe     3253.
    ##  3 Algeria     Africa     4854.
    ##  4 Angola      Africa     3265.
    ##  5 Argentina   Americas   9069.
    ##  6 Australia   Oceania   18906.
    ##  7 Austria     Europe    20673.
    ##  8 Bahrain     Asia      18780.
    ##  9 Bangladesh  Asia        704.
    ## 10 Belgium     Europe    20049.
    ## # ... with 132 more rows
…
For any generic output, we can use dplyr's `do()` function -- but that's a topic for STAT 547.

Grouped `mutate()`
------------------

Calculate the growth in population since the first year on record *for each country*. `first()` is useful.

``` r
gapminder %>%
  group_by(country) %>% 
  mutate(growth =pop - first(pop))  ## look at in the group
```

    ## # A tibble: 1,704 x 7
    ## # Groups:   country [142]
    ##    country     continent  year lifeExp      pop gdpPercap   growth
    ##    <fct>       <fct>     <int>   <dbl>    <int>     <dbl>    <int>
    ##  1 Afghanistan Asia       1952    28.8  8425333      779.        0
    ##  2 Afghanistan Asia       1957    30.3  9240934      821.   815601
    ##  3 Afghanistan Asia       1962    32.0 10267083      853.  1841750
    ##  4 Afghanistan Asia       1967    34.0 11537966      836.  3112633
    ##  5 Afghanistan Asia       1972    36.1 13079460      740.  4654127
    ##  6 Afghanistan Asia       1977    38.4 14880372      786.  6455039
    ##  7 Afghanistan Asia       1982    39.9 12881816      978.  4456483
    ##  8 Afghanistan Asia       1987    40.8 13867957      852.  5442624
    ##  9 Afghanistan Asia       1992    41.7 16317921      649.  7892588
    ## 10 Afghanistan Asia       1997    41.8 22227415      635. 13802082
    ## # ... with 1,694 more rows

``` r
gapminder %>%
  group_by(country) %>% 
  mutate(change =pop - lag(pop))
```

    ## # A tibble: 1,704 x 7
    ## # Groups:   country [142]
    ##    country     continent  year lifeExp      pop gdpPercap   change
    ##    <fct>       <fct>     <int>   <dbl>    <int>     <dbl>    <int>
    ##  1 Afghanistan Asia       1952    28.8  8425333      779.       NA
    ##  2 Afghanistan Asia       1957    30.3  9240934      821.   815601
    ##  3 Afghanistan Asia       1962    32.0 10267083      853.  1026149
    ##  4 Afghanistan Asia       1967    34.0 11537966      836.  1270883
    ##  5 Afghanistan Asia       1972    36.1 13079460      740.  1541494
    ##  6 Afghanistan Asia       1977    38.4 14880372      786.  1800912
    ##  7 Afghanistan Asia       1982    39.9 12881816      978. -1998556
    ##  8 Afghanistan Asia       1987    40.8 13867957      852.   986141
    ##  9 Afghanistan Asia       1992    41.7 16317921      649.  2449964
    ## 10 Afghanistan Asia       1997    41.8 22227415      635.  5909494
    ## # ... with 1,694 more rows

Notice that `dplyr` has retained the original grouping.

How about growth compared to `1972`?

``` r
gapminder %>%
  group_by(country) %>% 
  mutate(change =pop - pop[year == 1972])
```

    ## # A tibble: 1,704 x 7
    ## # Groups:   country [142]
    ##    country     continent  year lifeExp      pop gdpPercap   change
    ##    <fct>       <fct>     <int>   <dbl>    <int>     <dbl>    <int>
    ##  1 Afghanistan Asia       1952    28.8  8425333      779. -4654127
    ##  2 Afghanistan Asia       1957    30.3  9240934      821. -3838526
    ##  3 Afghanistan Asia       1962    32.0 10267083      853. -2812377
    ##  4 Afghanistan Asia       1967    34.0 11537966      836. -1541494
    ##  5 Afghanistan Asia       1972    36.1 13079460      740.        0
    ##  6 Afghanistan Asia       1977    38.4 14880372      786.  1800912
    ##  7 Afghanistan Asia       1982    39.9 12881816      978.  -197644
    ##  8 Afghanistan Asia       1987    40.8 13867957      852.   788497
    ##  9 Afghanistan Asia       1992    41.7 16317921      649.  3238461
    ## 10 Afghanistan Asia       1997    41.8 22227415      635.  9147955
    ## # ... with 1,694 more rows
…
